DATA 202: Statistically Measuring and Modeling Social Justice – DATA 202 - Week 11
…
# fix vars

  # change vars to appropriate formats
  fatal$date <- as.Date(fatal$date) # check/change to date format
  fatal$age <- as.numeric(fatal$age)
  fatal$was_mental_illness_related <- as.logical(fatal$was_mental_illness_related)
  fatal$body_camera <- as.logical(fatal$body_camera)
  
  # format to 20YY
  fatal.year <- format(fatal$date, format="20%y") 
  fatal$year <- fatal.year # add a year column to the df
  fatal %>% relocate(state, year) -> fatal
  fatal

# A tibble: 10,423 × 20
   state year     id date       threat_type flee_status armed_with city   county
   <chr> <chr> <int> <date>     <chr>       <chr>       <chr>      <chr>  <chr> 
 1 WA    2015      3 2015-01-02 point       not         gun        Shelt… Mason 
 2 OR    2015      4 2015-01-02 point       not         gun        Aloha  Washi…
 3 KS    2015      5 2015-01-03 move        not         unarmed    Wichi… Sedgw…
 4 CA    2015      8 2015-01-04 point       not         replica    San F… San F…
 5 CO    2015      9 2015-01-04 point       not         other      Evans  Weld  
 6 OK    2015     11 2015-01-04 attack      not         gun        Guthr… Logan 
 7 AZ    2015     13 2015-01-05 shoot       car         gun        Chand… Maric…
 8 KS    2015     15 2015-01-06 point       not         gun        Assar… Saline
 9 IA    2015     16 2015-01-06 accident    not         unarmed    Burli… Des M…
10 PA    2015     17 2015-01-06 point       not         replica    Knoxv… Alleg…
# ℹ 10,413 more rows
# ℹ 11 more variables: latitude <dbl>, longitude <dbl>,
#   location_precision <chr>, name <chr>, age <dbl>, gender <chr>, race <chr>,
#   race_source <chr>, was_mental_illness_related <lgl>, body_camera <lgl>,
#   agency_ids <chr>
…
  agency_ids       
 Length:8981       
 Class :character  
 Mode  :character  

Ancillary explorations.

With the clean data, I may be interested in getting counts by state and then year as we explore.

# get counts by state then year
fatal_clean %>% 
  count(state, year)

# A tibble: 500 × 3
   state year      n
   <chr> <chr> <int>
 1 AK    2015      4
 2 AK    2016      8
 3 AK    2017      6
 4 AK    2018      5
 5 AK    2019      7
 6 AK    2020      6
 7 AK    2021      4
 8 AK    2022      5
 9 AK    2023      1
10 AK    2024      7
# ℹ 490 more rows
…
