DATA 202 - Week 14 – DATA 202: Statistically Measuring and Modeling Social Justice
…
# subset the data

survey %>% 
  select(Wr.Hnd, NW.Hnd, Pulse, Height, Age) -> df1 
df1 

# A tibble: 237 × 5
   Wr.Hnd NW.Hnd Pulse Height   Age
    <dbl>  <dbl> <int>  <dbl> <dbl>
 1   18.5   18      92   173   18.2
 2   19.5   20.5   104   178.  17.6
 3   18     13.3    87    NA   16.9
 4   18.8   18.9    NA   160   20.3
 5   20     20      35   165   23.7
 6   18     17.7    64   173.  21  
 7   17.7   17.7    83   183.  18.8
 8   17     17.3    74   157   35.8
 9   20     19.5    72   175   19  
10   18.5   18.5    90   167   22.3
# ℹ 227 more rows
…
