Case Study 2, Part 2: The True Size of Africa – DATA 202: Statistically Measuring and Modeling Social Justice
…
plot(density()) provides a density plot of a single numeric variable

Each of the above functions provides a different perspective on the distribution of values for a single variable.

Task 2.4.1: Inspect data prior to analysis

From our earlier observations, we see that the africa_data_all (df2) contains data across two years: 2020 and 2023. Let’s use pipes %>% to create separate data from for each year.

# create a separate data frame for 2020
data_2020 <- df2 %>% 
  filter(year == 2020)

data_2020 # view the data for 2020

# A tibble: 58 × 13
   country          pop pop.yearly.change pop.net.change density   area migrants
   <chr>          <dbl>             <dbl>          <dbl>   <dbl>  <dbl>    <dbl>
 1 Nigeria       2.06e8              2.58        5175990     226 9.11e5   -60000
 2 Ethiopia      1.15e8              2.57        2884858     115 1   e6    30000
 3 Egypt         1.02e8              1.94        1946331     103 9.95e5   -38033
 4 DR Congo      8.96e7              3.19        2770836      40 2.27e6    23861
 5 South Africa  5.93e7              1.28         750420      49 1.21e6   145405
 6 Tanzania      5.97e7              2.98        1728755      67 8.86e5   -40076
 7 Kenya         5.38e7              2.28        1197323      94 5.69e5   -10000
 8 Uganda        4.57e7              3.32        1471413     229 2.00e5   168694
 9 Algeria       4.39e7              1.85         797990      18 2.38e6   -10000
10 Sudan         4.38e7              2.42        1036022      25 1.77e6   -50000
# ℹ 48 more rows
# ℹ 6 more variables: fertility.rate <dbl>, med.age <dbl>, urban.pop <dbl>,
#   world.share <dbl>, pop_in_mill <dbl>, year <dbl>

It is not clear that this data is for 2020. As a result, we can reorganize the columns and overwrite the data frame.

I am moving the year variable to the second position in the data frame.

data_2020 <- df2 %>% 
  filter(year == 2020) %>% 
  relocate(country, year)

data_2020 # view the data for 2020

# A tibble: 58 × 13
   country  year    pop pop.yearly.change pop.net.change density   area migrants
   <chr>   <dbl>  <dbl>             <dbl>          <dbl>   <dbl>  <dbl>    <dbl>
 1 Nigeria  2020 2.06e8              2.58        5175990     226 9.11e5   -60000
 2 Ethiop…  2020 1.15e8              2.57        2884858     115 1   e6    30000
 3 Egypt    2020 1.02e8              1.94        1946331     103 9.95e5   -38033
 4 DR Con…  2020 8.96e7              3.19        2770836      40 2.27e6    23861
 5 South …  2020 5.93e7              1.28         750420      49 1.21e6   145405
 6 Tanzan…  2020 5.97e7              2.98        1728755      67 8.86e5   -40076
 7 Kenya    2020 5.38e7              2.28        1197323      94 5.69e5   -10000
 8 Uganda   2020 4.57e7              3.32        1471413     229 2.00e5   168694
 9 Algeria  2020 4.39e7              1.85         797990      18 2.38e6   -10000
10 Sudan    2020 4.38e7              2.42        1036022      25 1.77e6   -50000
# ℹ 48 more rows
# ℹ 5 more variables: fertility.rate <dbl>, med.age <dbl>, urban.pop <dbl>,
#   world.share <dbl>, pop_in_mill <dbl>

We can run the same functions for year == 2023.

# create a separate data frame for 2023
data_2023 <- df2 %>% 
  filter(year == 2023) %>% 
  relocate(country, year)

data_2023 # view the data for 2023

# A tibble: 58 × 13
   country  year    pop pop.yearly.change pop.net.change density   area migrants
   <chr>   <dbl>  <dbl>             <dbl>          <dbl>   <dbl>  <dbl>    <dbl>
 1 Nigeria  2023 2.24e8              2.41        5263420     246 9.11e5   -59996
 2 Ethiop…  2023 1.27e8              2.55        3147136     127 1   e6   -11999
 3 Egypt    2023 1.13e8              1.56        1726495     113 9.95e5   -29998
 4 DR Con…  2023 1.02e8              3.29        3252596      45 2.27e6   -14999
 5 Tanzan…  2023 6.74e7              2.96        1940358      76 8.86e5   -39997
 6 South …  2023 6.04e7              0.87         520610      50 1.21e6    58496
 7 Kenya    2023 5.51e7              1.99        1073099      97 5.69e5   -10000
 8 Sudan    2023 4.81e7              2.63        1234802      27 1.77e6    -9999
 9 Uganda   2023 4.86e7              2.82        1332749     243 2.00e5  -126181
10 Algeria  2023 4.56e7              1.57         703255      19 2.38e6    -9999
# ℹ 48 more rows
# ℹ 5 more variables: fertility.rate <dbl>, med.age <dbl>, urban.pop <dbl>,
#   world.share <dbl>, pop_in_mill <dbl>
…
The median() function returns the middle value of a single numeric variable.

median(data_2020$pop)

[1] 12006992

We can also use pipe operators to filter the countries that are above and below the median values.

# filter data to show countries that are below the median
data_2020 %>% 
  filter(pop < median(pop)) %>% 
  select(country, pop)

# A tibble: 29 × 2
   country                       pop
   <chr>                       <dbl>
 1 Tunisia                  11818619
 2 Burundi                  11890784
 3 South Sudan              11193725
 4 Togo                      8278724
 5 Sierra Leone              7976983
 6 Libya                     6871292
 7 Congo                     5518087
 8 Liberia                   5057681
 9 Central African Republic  4829767
10 Mauritania                4649658
# ℹ 19 more rows

# filter data to show countries that are above the median
data_2020 %>% 
  filter(pop > median(pop)) %>% 
  select(country, pop)

# A tibble: 29 × 2
   country            pop
   <chr>            <dbl>
 1 Nigeria      206139589
 2 Ethiopia     114963588
 3 Egypt        102334404
 4 DR Congo      89561403
 5 South Africa  59308690
 6 Tanzania      59734218
 7 Kenya         53771296
 8 Uganda        45741007
 9 Algeria       43851044
10 Sudan         43849260
# ℹ 19 more rows
…
