Paper 2 – DATA 202: Statistically Measuring and Modeling Social Justice
…
data()

Locate the gss_cat data in the forcats pacakge.

This is a data set for us to examine the use of categorical data and factor variable types.

View documentation for your data

?gss_cat

View your data

gss_cat

# A tibble: 21,483 × 9
    year marital         age race  rincome        partyid    relig denom tvhours
   <int> <fct>         <int> <fct> <fct>          <fct>      <fct> <fct>   <int>
 1  2000 Never married    26 White $8000 to 9999  Ind,near … Prot… Sout…      12
 2  2000 Divorced         48 White $8000 to 9999  Not str r… Prot… Bapt…      NA
 3  2000 Widowed          67 White Not applicable Independe… Prot… No d…       2
 4  2000 Never married    39 White Not applicable Ind,near … Orth… Not …       4
 5  2000 Divorced         25 White Not applicable Not str d… None  Not …       1
 6  2000 Married          25 White $20000 - 24999 Strong de… Prot… Sout…      NA
 7  2000 Never married    36 White $25000 or more Not str r… Chri… Not …       3
 8  2000 Divorced         44 White $7000 to 7999  Ind,near … Prot… Luth…      NA
 9  2000 Married          44 White $25000 or more Not str d… Prot… Other       0
10  2000 Married          47 White $25000 or more Strong re… Prot… Sout…       3
# ℹ 21,473 more rows
…
For this paper, it is fine to drop all missing observations.

We will also explore the data from the year 2000.

df <- gss_cat %>% 
  na.omit() %>% 
  filter(year == 2000) %>% 
  select(year, rincome, partyid)

Examine the reduced data frame.

df

# A tibble: 1,824 × 3
    year rincome        partyid           
   <int> <fct>          <fct>             
 1  2000 $8000 to 9999  Ind,near rep      
 2  2000 Not applicable Independent       
 3  2000 Not applicable Ind,near rep      
 4  2000 Not applicable Not str democrat  
 5  2000 $25000 or more Not str republican
 6  2000 $25000 or more Not str democrat  
 7  2000 $25000 or more Strong republican 
 8  2000 $25000 or more Not str democrat  
 9  2000 $25000 or more Strong democrat   
10  2000 $25000 or more Ind,near dem      
# ℹ 1,814 more rows
…
From our frequency tables, it is clear that we will need to transform our data.

Recode categories into two-levels (dichotomous)

For this analysis, we will transform our data into two dichotomous variables. Let’s examine the outputs before overwriting our data frame.

We will use the logic operator != to imply we do not want to keep these values (i.e., we will filter the values that are not equal to the right hand side).

df %>% 
  filter(year == 2000) %>% 
  filter(rincome != "No answer"
         & rincome != "Refused"
         & rincome != "Not applicable")

# A tibble: 1,198 × 3
    year rincome        partyid           
   <int> <fct>          <fct>             
 1  2000 $8000 to 9999  Ind,near rep      
 2  2000 $25000 or more Not str republican
 3  2000 $25000 or more Not str democrat  
 4  2000 $25000 or more Strong republican 
 5  2000 $25000 or more Not str democrat  
 6  2000 $25000 or more Strong democrat   
 7  2000 $25000 or more Ind,near dem      
 8  2000 $25000 or more Strong democrat   
 9  2000 $25000 or more Independent       
10  2000 $10000 - 14999 Not str democrat  
# ℹ 1,188 more rows
…
  mutate(rincome = fct_recode(rincome, 
          "More than 10000" = "$25000 or more",
          "More than 10000" = "$20000 to 24999",
          "More than 10000" = "$15000 to 19999",
          "More than 10000" = "$10000 to 14999",
          "Less than 10000" = "$8000 to 9999",
          "Less than 10000" = "$7000 to 7999",
          "Less than 10000" = "$6000 to 6999",
          "Less than 10000" = "$5000 to 5999",
          "Less than 10000" = "$4000 to 4999",
          "Less than 10000" = "$3000 to 3999",
          "Less than 10000" = "$1000 to 2999",
          "Less than 10000" = "$Lt $1000"))

# A tibble: 1,824 × 3
    year rincome         partyid           
   <int> <fct>           <fct>             
 1  2000 Less than 10000 Ind,near rep      
 2  2000 Not applicable  Independent       
 3  2000 Not applicable  Ind,near rep      
 4  2000 Not applicable  Not str democrat  
 5  2000 More than 10000 Not str republican
 6  2000 More than 10000 Not str democrat  
 7  2000 More than 10000 Strong republican 
 8  2000 More than 10000 Not str democrat  
 9  2000 More than 10000 Strong democrat   
10  2000 More than 10000 Ind,near dem      
# ℹ 1,814 more rows

df %>% 
  mutate(partyid = fct_recode(partyid,
                              "Republican" = "Strong republican",
                              "Republican" = "Not str republican",
                              "Republican" = "Ind,near rep",
                              "Democrat" = "Ind,near dem",
                              "Democrat" = "Not str democrat",
                              "Democrat" = "Strong democrat"))

# A tibble: 1,824 × 3
    year rincome        partyid    
   <int> <fct>          <fct>      
 1  2000 $8000 to 9999  Republican 
 2  2000 Not applicable Independent
 3  2000 Not applicable Republican 
 4  2000 Not applicable Democrat   
 5  2000 $25000 or more Republican 
 6  2000 $25000 or more Democrat   
 7  2000 $25000 or more Republican 
 8  2000 $25000 or more Democrat   
 9  2000 $25000 or more Democrat   
10  2000 $25000 or more Democrat   
# ℹ 1,814 more rows
…
          "Less than 20000" = "$6000 to 6999",
          "Less than 20000" = "$5000 to 5999",
          "Less than 20000" = "$4000 to 4999",
          "Less than 20000" = "$3000 to 3999",
          "Less than 20000" = "$1000 to 2999",
          "Less than 20000" = "Lt $1000")) %>%
  mutate(partyid = fct_recode(partyid,
                              "Republican" = "Strong republican",
                              "Republican" = "Not str republican",
                              "Republican" = "Ind,near rep",
                              "Democrat" = "Ind,near dem",
                              "Democrat" = "Not str democrat",
                              "Democrat" = "Strong democrat"))

# A tibble: 1,198 × 3
    year rincome         partyid    
   <int> <fct>           <fct>      
 1  2000 Less than 20000 Republican 
 2  2000 More than 20000 Republican 
 3  2000 More than 20000 Democrat   
 4  2000 More than 20000 Republican 
 5  2000 More than 20000 Democrat   
 6  2000 More than 20000 Democrat   
 7  2000 More than 20000 Democrat   
 8  2000 More than 20000 Democrat   
 9  2000 More than 20000 Independent
10  2000 Less than 20000 Democrat   
# ℹ 1,188 more rows
…
